{
  "env": {
    "MONGO_ATLAS_PASSWORD": "VR5s2kvslgBeNY5Z",
    "JWT_SECRET": "q8gavFcs5Np7C7jG5vpvJkDbQH3mLlr2vZ7xU5DEm5anudag5UBtT5y2+Wig/1H/Vw65tkv2qKvkgxSKn9zohg==",
    "APP": "STUDY CAMP APP",
    "MONGO_ATLAS_URL": "mongodb+srv://study-camp-db:VR5s2kvslgBeNY5Z@cluster0.kx7i8.mongodb.net/study-camp?retryWrites=true&w=majority",
    "MONGO_ATLAS_DEV_URL": "mongodb+srv://study-camp-db:VR5s2kvslgBeNY5Z@cluster0.kx7i8.mongodb.net/dev-study-camp?retryWrites=true&w=majority",
    "MONGO_ATLAS_STAGE_URL": "mongodb+srv://study-camp-db:VR5s2kvslgBeNY5Z@cluster0.kx7i8.mongodb.net/stage-study-camp?retryWrites=true&w=majority"
  }
}
